%YAML 1.1
%TAG !u! tag:unity3d.com,2011:
--- !u!1 &1771808296256445350
GameObject:
  m_ObjectHideFlags: 0
  m_CorrespondingSourceObject: {fileID: 0}
  m_PrefabInstance: {fileID: 0}
  m_PrefabAsset: {fileID: 0}
  serializedVersion: 6
  m_Component:
  - component: {fileID: 1572743022221140505}
  - component: {fileID: 549098027560721217}
  m_Layer: 0
  m_Name: --------GameManager---------
  m_TagString: GameManager
  m_Icon: {fileID: 0}
  m_NavMeshLayer: 0
  m_StaticEditorFlags: 0
  m_IsActive: 1
--- !u!4 &1572743022221140505
Transform:
  m_ObjectHideFlags: 0
  m_CorrespondingSourceObject: {fileID: 0}
  m_PrefabInstance: {fileID: 0}
  m_PrefabAsset: {fileID: 0}
  m_GameObject: {fileID: 1771808296256445350}
  serializedVersion: 2
  m_LocalRotation: {x: 0, y: 0, z: 0, w: 1}
  m_LocalPosition: {x: 3.7305963, y: -0.08813725, z: -0.06083683}
  m_LocalScale: {x: 1, y: 1, z: 1}
  m_ConstrainProportionsScale: 0
  m_Children: []
  m_Father: {fileID: 0}
  m_LocalEulerAnglesHint: {x: 0, y: 0, z: 0}
--- !u!114 &549098027560721217
MonoBehaviour:
  m_ObjectHideFlags: 0
  m_CorrespondingSourceObject: {fileID: 0}
  m_PrefabInstance: {fileID: 0}
  m_PrefabAsset: {fileID: 0}
  m_GameObject: {fileID: 1771808296256445350}
  m_Enabled: 1
  m_EditorHideFlags: 0
  m_Script: {fileID: 11500000, guid: 42fd064e1548f0a4fbe99dea8e13c0c0, type: 3}
  m_Name: 
  m_EditorClassIdentifier: 
  Victory: 0
  personajes:
  - {fileID: 11400000, guid: e31e32f278b251d4682401699773b44f, type: 2}
  - {fileID: 11400000, guid: 214f59aad8a9cdd43819db761223ece8, type: 2}
  botonPausa: {fileID: 0}
  menuPausa: {fileID: 0}
  image: {fileID: 0}
  name: {fileID: 0}
